<?xml version="1.0" encoding="UTF-8" standalone="no"?>
<!-- Created with Inkscape (http://www.inkscape.org/) -->

<svg
   xmlns:dc="http://purl.org/dc/elements/1.1/"
   xmlns:cc="http://creativecommons.org/ns#"
   xmlns:rdf="http://www.w3.org/1999/02/22-rdf-syntax-ns#"
   xmlns:svg="http://www.w3.org/2000/svg"
   xmlns="http://www.w3.org/2000/svg"
   xmlns:xlink="http://www.w3.org/1999/xlink"
   xmlns:sodipodi="http://sodipodi.sourceforge.net/DTD/sodipodi-0.dtd"
   xmlns:inkscape="http://www.inkscape.org/namespaces/inkscape"
   width="210mm"
   height="297mm"
   viewBox="0 0 210 297"
   version="1.1"
   id="svg8"
   inkscape:version="0.92.2 (5c3e80d, 2017-08-06)"
   sodipodi:docname="SVG_Drawings.svg">
  <defs
     id="defs2">
    <linearGradient
       id="linearGradient878"
       inkscape:collect="always">
      <stop
         id="stop872"
         offset="0"
         style="stop-color:#ffffff;stop-opacity:1;" />
      <stop
         style="stop-color:#ffffff;stop-opacity:1"
         offset="0.75142646"
         id="stop874" />
      <stop
         id="stop876"
         offset="1"
         style="stop-color:#ffffff;stop-opacity:0;" />
    </linearGradient>
    <linearGradient
       id="linearGradient860"
       inkscape:collect="always">
      <stop
         id="stop854"
         offset="0"
         style="stop-color:#ffffff;stop-opacity:1;" />
      <stop
         style="stop-color:#ffffff;stop-opacity:1"
         offset="0.2742475"
         id="stop856" />
      <stop
         id="stop858"
         offset="1"
         style="stop-color:#ffffff;stop-opacity:0;" />
    </linearGradient>
    <linearGradient
       inkscape:collect="always"
       id="linearGradient841">
      <stop
         style="stop-color:#ffffff;stop-opacity:1;"
         offset="0"
         id="stop837" />
      <stop
         id="stop845"
         offset="0.74733907"
         style="stop-color:#ffffff;stop-opacity:1" />
      <stop
         style="stop-color:#ffffff;stop-opacity:0;"
         offset="1"
         id="stop839" />
    </linearGradient>
    <inkscape:perspective
       sodipodi:type="inkscape:persp3d"
       inkscape:vp_x="0 : 148.5 : 1"
       inkscape:vp_y="0 : 1000 : 0"
       inkscape:vp_z="210 : 148.5 : 1"
       inkscape:persp3d-origin="105 : 99 : 1"
       id="perspective4520" />
    <linearGradient
       inkscape:collect="always"
       id="linearGradient4561">
      <stop
         style="stop-color:#0000ff;stop-opacity:1"
         offset="0"
         id="stop4557" />
      <stop
         id="stop4567"
         offset="0.39960149"
         style="stop-color:#ff0000;stop-opacity:1" />
      <stop
         id="stop4565"
         offset="0.76652867"
         style="stop-color:#ff0000;stop-opacity:1" />
      <stop
         style="stop-color:#ffff00;stop-opacity:1"
         offset="1"
         id="stop4559" />
    </linearGradient>
    <linearGradient
       inkscape:collect="always"
       xlink:href="#linearGradient4561"
       id="linearGradient4563"
       x1="60.937454"
       y1="48.439339"
       x2="60.737"
       y2="54.786991"
       gradientUnits="userSpaceOnUse" />
    <radialGradient
       inkscape:collect="always"
       xlink:href="#linearGradient841"
       id="radialGradient843"
       cx="67.657738"
       cy="232.28975"
       fx="67.657738"
       fy="232.28975"
       r="21.478166"
       gradientUnits="userSpaceOnUse" />
    <radialGradient
       inkscape:collect="always"
       xlink:href="#linearGradient860"
       id="radialGradient852"
       gradientUnits="userSpaceOnUse"
       gradientTransform="matrix(0.76571021,0.6460676,-0.64487071,0.76429168,183.72263,-24.943715)"
       cx="125.86607"
       cy="239.16965"
       fx="125.86607"
       fy="239.16965"
       r="15.79611" />
    <radialGradient
       inkscape:collect="always"
       xlink:href="#linearGradient878"
       id="radialGradient870"
       cx="29.934187"
       cy="270.20624"
       fx="29.934187"
       fy="270.20624"
       r="2.5832911"
       gradientTransform="matrix(1,0,0,1.8535522,0,-230.63512)"
       gradientUnits="userSpaceOnUse" />
  </defs>
  <sodipodi:namedview
     id="base"
     pagecolor="#ffffff"
     bordercolor="#666666"
     borderopacity="1.0"
     inkscape:pageopacity="0.0"
     inkscape:pageshadow="2"
     inkscape:zoom="3.959798"
     inkscape:cx="229.27574"
     inkscape:cy="162.26362"
     inkscape:document-units="mm"
     inkscape:current-layer="layer1"
     showgrid="false"
     inkscape:window-width="1920"
     inkscape:window-height="1057"
     inkscape:window-x="-8"
     inkscape:window-y="-8"
     inkscape:window-maximized="1"
     inkscape:pagecheckerboard="true" />
  <metadata
     id="metadata5">
    <rdf:RDF>
      <cc:Work
         rdf:about="">
        <dc:format>image/svg+xml</dc:format>
        <dc:type
           rdf:resource="http://purl.org/dc/dcmitype/StillImage" />
        <dc:title />
      </cc:Work>
    </rdf:RDF>
  </metadata>
  <g
     inkscape:label="Layer 1"
     inkscape:groupmode="layer"
     id="layer1">
    <rect
       style="opacity:1;fill:#b3b3b3;fill-opacity:1;stroke:#010000;stroke-width:1.5;stroke-miterlimit:4;stroke-dasharray:none;stroke-opacity:1"
       id="rect3715"
       width="8.8824406"
       height="18.331844"
       x="39.6875"
       y="52.827377"
       inkscape:export-xdpi="96"
       inkscape:export-ydpi="96" />
    <path
       sodipodi:type="star"
       style="fill:#ff0000;fill-opacity:1;stroke:#000000;stroke-width:1.5;stroke-miterlimit:4;stroke-dasharray:none;stroke-opacity:1"
       id="path4533"
       sodipodi:sides="3"
       sodipodi:cx="44.227734"
       sodipodi:cy="48.82111"
       sodipodi:r1="7.6069174"
       sodipodi:r2="3.8034585"
       sodipodi:arg1="0.52359878"
       sodipodi:arg2="1.5707963"
       inkscape:flatsided="false"
       inkscape:rounded="0"
       inkscape:randomized="0"
       d="m 50.815517,52.624568 -6.587783,0 -6.587784,0 3.293892,-5.705187 3.293892,-5.705189 3.293891,5.705188 z"
       inkscape:transform-center-y="-1.9017299"
       inkscape:export-xdpi="96"
       inkscape:export-ydpi="96" />
    <path
       sodipodi:type="star"
       style="fill:url(#linearGradient4563);fill-opacity:1;stroke:#000000;stroke-width:1.5;stroke-miterlimit:4;stroke-dasharray:none;stroke-opacity:1"
       id="path4547"
       sodipodi:sides="4"
       sodipodi:cx="60.803814"
       sodipodi:cy="52.047478"
       sodipodi:r1="5.0781207"
       sodipodi:r2="3.5907738"
       sodipodi:arg1="0"
       sodipodi:arg2="0.78539816"
       inkscape:flatsided="true"
       inkscape:rounded="0"
       inkscape:randomized="0"
       d="m 65.881935,52.047478 -5.078121,5.07812 -5.078121,-5.07812 5.078121,-5.078121 z"
       inkscape:export-xdpi="96"
       inkscape:export-ydpi="96" />
    <rect
       style="fill:#999999;fill-opacity:1;stroke:#000000;stroke-width:1.5;stroke-miterlimit:4;stroke-dasharray:none;stroke-opacity:1"
       id="rect4569"
       width="29.399649"
       height="71.628235"
       x="115.59407"
       y="56.591057"
       inkscape:export-xdpi="96"
       inkscape:export-ydpi="96" />
    <rect
       style="fill:#ffff00;fill-opacity:1;stroke:#000000;stroke-width:1.5;stroke-miterlimit:4;stroke-dasharray:none;stroke-opacity:1"
       id="rect4571"
       width="5.6126599"
       height="8.6862593"
       x="121.34036"
       y="67.415474"
       inkscape:export-xdpi="96"
       inkscape:export-ydpi="96" />
    <rect
       style="fill:#ffff00;fill-opacity:1;stroke:#000000;stroke-width:1.5;stroke-miterlimit:4;stroke-dasharray:none;stroke-opacity:1"
       id="rect4573"
       width="4.543582"
       height="8.8198938"
       x="131.63023"
       y="67.415474"
       inkscape:export-xdpi="96"
       inkscape:export-ydpi="96" />
    <rect
       style="fill:#ffff00;fill-opacity:1;stroke:#000000;stroke-width:1.5;stroke-miterlimit:4;stroke-dasharray:none;stroke-opacity:1"
       id="rect4575"
       width="4.2763124"
       height="8.0180855"
       x="122.94398"
       y="82.516197"
       inkscape:export-xdpi="96"
       inkscape:export-ydpi="96" />
    <rect
       style="fill:#ffff00;fill-opacity:1;stroke:#000000;stroke-width:1.5;stroke-miterlimit:4;stroke-dasharray:none;stroke-opacity:1"
       id="rect4577"
       width="4.2763124"
       height="8.4189901"
       x="134.16931"
       y="83.585281"
       inkscape:export-xdpi="96"
       inkscape:export-ydpi="96" />
    <rect
       style="fill:#ffff00;fill-opacity:1;stroke:#000000;stroke-width:1.5;stroke-miterlimit:4;stroke-dasharray:none;stroke-opacity:1"
       id="rect4579"
       width="4.543582"
       height="8.4189901"
       x="120.27129"
       y="99.755089"
       inkscape:export-xdpi="96"
       inkscape:export-ydpi="96" />
    <rect
       style="fill:#ffff00;fill-opacity:1;stroke:#000000;stroke-width:1.5;stroke-miterlimit:4;stroke-dasharray:none;stroke-opacity:1"
       id="rect4581"
       width="4.4099469"
       height="10.423512"
       x="133.23386"
       y="100.15599"
       inkscape:export-xdpi="96"
       inkscape:export-ydpi="96" />
    <rect
       style="fill:#66ff00;fill-opacity:1;stroke:#000000;stroke-width:1.5;stroke-miterlimit:4;stroke-dasharray:none;stroke-opacity:1"
       id="rect4583"
       width="48.375786"
       height="16.570711"
       x="29.132378"
       y="89.598839"
       inkscape:export-xdpi="96"
       inkscape:export-ydpi="96" />
    <circle
       style="opacity:1;fill:#ffffff;fill-opacity:1;stroke:#000000;stroke-width:0.62300003;stroke-linecap:round;stroke-miterlimit:4;stroke-dasharray:none;stroke-opacity:0.01005025"
       id="path4518"
       cx="67.657738"
       cy="178.31548"
       r="21.166666"
       inkscape:export-xdpi="96"
       inkscape:export-ydpi="96" />
    <rect
       style="opacity:1;fill:#89a02c;fill-opacity:1;stroke:#000000;stroke-width:0.62300003;stroke-linecap:round;stroke-miterlimit:4;stroke-dasharray:none;stroke-opacity:1"
       id="rect4536"
       width="13.229166"
       height="23.434523"
       x="123.59821"
       y="180.9613"
       ry="5.121407e-006"
       inkscape:export-xdpi="96"
       inkscape:export-ydpi="96" />
    <rect
       ry="0"
       y="195.15518"
       x="155.21672"
       height="17.322325"
       width="10.11529"
       id="rect4538"
       style="opacity:1;fill:#89a02c;fill-opacity:1;stroke:#000000;stroke-width:0.46836671;stroke-linecap:round;stroke-miterlimit:4;stroke-dasharray:none;stroke-opacity:1"
       inkscape:export-xdpi="96"
       inkscape:export-ydpi="96" />
    <path
       style="opacity:1;fill:#89a02c;fill-opacity:1;stroke:#000000;stroke-width:0.60236508;stroke-linecap:round;stroke-miterlimit:4;stroke-dasharray:none;stroke-opacity:1"
       id="path4544"
       sodipodi:type="arc"
       sodipodi:cx="160.36833"
       sodipodi:cy="-195.15761"
       sodipodi:rx="4.9994159"
       sodipodi:ry="5.2102346"
       sodipodi:start="0"
       sodipodi:end="3.1213934"
       d="m 165.36775,-195.15761 a 4.9994159,5.2102346 0 0 1 -4.94893,5.20997 4.9994159,5.2102346 0 0 1 -5.04888,-5.10473"
       sodipodi:open="true"
       transform="scale(1,-1)"
       inkscape:export-xdpi="96"
       inkscape:export-ydpi="96" />
    <rect
       style="opacity:1;fill:#000000;fill-opacity:1;stroke:#000000;stroke-width:0.62300003;stroke-linecap:round;stroke-miterlimit:4;stroke-dasharray:none;stroke-opacity:1"
       id="rect4549"
       width="2.80633"
       height="6.0135641"
       x="129.35844"
       y="168.84427"
       ry="5.121407e-006"
       inkscape:export-xdpi="96"
       inkscape:export-ydpi="96" />
    <circle
       inkscape:export-ydpi="96"
       inkscape:export-xdpi="96"
       r="21.166666"
       cy="232.28975"
       cx="67.657738"
       id="circle835"
       style="opacity:1;fill:url(#radialGradient843);fill-opacity:1;stroke:#000000;stroke-width:0.62300003;stroke-linecap:round;stroke-miterlimit:4;stroke-dasharray:none;stroke-opacity:0.01005028" />
    <path
       sodipodi:type="star"
       style="opacity:1;fill:url(#radialGradient852);fill-opacity:1;stroke:#000000;stroke-width:0.62300003;stroke-linecap:round;stroke-miterlimit:4;stroke-dasharray:none;stroke-opacity:0.01005028"
       id="path841"
       sodipodi:sides="8"
       sodipodi:cx="125.86607"
       sodipodi:cy="239.16965"
       sodipodi:r1="15.119047"
       sodipodi:r2="5.7635969"
       sodipodi:arg1="1.5707963"
       sodipodi:arg2="2.0435676"
       inkscape:flatsided="false"
       inkscape:rounded="0"
       inkscape:randomized="0"
       d="m 125.86607,254.28869 -2.62448,-9.98766 -8.0663,5.5594 5.20655,-8.91814 -9.63481,-1.77264 9.98766,-2.62449 -5.5594,-8.06629 8.91814,5.20655 1.77264,-9.63482 2.62449,9.98766 8.06629,-5.55939 -5.20655,8.91813 9.63482,1.77265 -9.98766,2.62448 5.55939,8.0663 -8.91813,-5.20655 z"
       inkscape:transform-center-x="1.5857143e-006"
       inkscape:transform-center-y="-3.0131608e-006"
       inkscape:export-xdpi="96"
       inkscape:export-ydpi="96" />
    <rect
       style="opacity:1;fill:url(#radialGradient870);fill-opacity:1;stroke:#000000;stroke-width:0.62300003;stroke-linecap:round;stroke-miterlimit:4;stroke-dasharray:none;stroke-opacity:0.01005028"
       id="rect862"
       width="4.543582"
       height="8.9535294"
       x="27.662395"
       y="265.72946"
       ry="2.271791"
       inkscape:export-xdpi="96"
       inkscape:export-ydpi="96" />
  </g>
</svg>
